FinalProject
…
## Assuming "longitude" and "latitude" are longitude and latitude, respectively

slope_val <- review_fit$coefficients[2]
intercept_val <- review_fit$coefficients[1]

tmp <- listings %>% 
  group_by(neighbourhood) %>%
  mutate(diff_from_neighbourhood = (price-mean(price))/mean(price)) %>%
  mutate(prediction = (number_of_reviews * slope_val + intercept_val)) %>%
  mutate(is_good_prediction = ((diff_from_neighbourhood <= 0) && (diff_from_neighbourhood <= prediction)))

tmp %>% filter(neighbourhood=="Shaw")

## # A tibble: 403 x 15
## # Groups:   neighbourhood [1]
##        id host_id neighbourhood zipcode latitude longitude accommodates
##     <dbl>   <dbl> <chr>         <chr>      <dbl>     <dbl>        <dbl>
##  1   3362    2798 Shaw          20001       38.9     -77.0           16
##  2   4501    1585 Shaw          20001       38.9     -77.0            2
##  3  25366    2798 Shaw          20001       38.9     -77.0           11
##  4  32584   29711 Shaw          20001       38.9     -77.0            4
##  5  52092   50148 Shaw          20001       38.9     -77.0            6
##  6  93551  481929 Shaw          20001       38.9     -77.0            2
##  7 124030  614408 Shaw          20001       38.9     -77.0            4
##  8 175608   50148 Shaw          20001       38.9     -77.0            4
##  9 198761  970466 Shaw          20001       38.9     -77.0            1
## 10 407014   29711 Shaw          20001       38.9     -77.0            6
## # ... with 393 more rows, and 8 more variables: price <dbl>,
## #   number_of_reviews <dbl>, review_scores_rating <dbl>,
## #   reviews_per_month <dbl>, adj_price <dbl>,
## #   diff_from_neighbourhood <dbl>, prediction <dbl>,
## #   is_good_prediction <lgl>
…
